MEMORY
{
  /* NOTE 1 K = 1 KiBi = 1024 bytes */
  FLASH        : ORIGIN = 0x08000000, LENGTH = 512K
  RAM          : ORIGIN = 0x20000000, LENGTH = 64K
  CCMRAM (xrw) : ORIGIN = 0x10000000, LENGTH = 16K
}
